…
    ## New names:
    ## * `` -> ...15
    ## * `` -> ...16
    ## * `` -> ...17

``` r
trash_wheels_data
```

    ## # A tibble: 344 x 14
    ##    dumpster month  year date                weight_tons volume_cubic_ya…
    ##       <dbl> <chr> <dbl> <dttm>                    <dbl>            <dbl>
    ##  1        1 May    2014 2014-05-16 00:00:00        4.31               18
    ##  2        2 May    2014 2014-05-16 00:00:00        2.74               13
    ##  3        3 May    2014 2014-05-16 00:00:00        3.45               15
    ##  4        4 May    2014 2014-05-17 00:00:00        3.1                15
    ##  5        5 May    2014 2014-05-17 00:00:00        4.06               18
    ##  6        6 May    2014 2014-05-20 00:00:00        2.71               13
    ##  7        7 May    2014 2014-05-21 00:00:00        1.91                8
    ##  8        8 May    2014 2014-05-28 00:00:00        3.7                16
    ##  9        9 June   2014 2014-06-05 00:00:00        2.52               14
    ## 10       10 June   2014 2014-06-11 00:00:00        3.76               18
    ## # … with 334 more rows, and 8 more variables: plastic_bottles <dbl>,
    ## #   polystyrene <dbl>, cigarette_butts <dbl>, glass_bottles <dbl>,
    ## #   grocery_bags <dbl>, chip_bags <dbl>, sports_balls <int>,
    ## #   homes_powered <dbl>
…
## Merging datasets to form precipiation\_join data

``` r
precipitation_join = 
  full_join(precipitation_2018_data, precipitation_2017_data) %>%
  mutate(month = as.numeric(month), month = month.name[month])
```

    ## Joining, by = c("month", "total", "year")

``` r
precipitation_join
```

    ## # A tibble: 24 x 3
    ##    month     total  year
    ##    <chr>     <dbl> <dbl>
    ##  1 January    2.34  2018
    ##  2 February   1.46  2018
    ##  3 March      3.57  2018
    ##  4 April      3.99  2018
    ##  5 May        5.64  2018
    ##  6 June       1.4   2018
    ##  7 July       7.09  2018
    ##  8 August     4.44  2018
    ##  9 September  1.95  2018
    ## 10 October    0     2018
    ## # … with 14 more rows
…
``` r
pols_month_data
```

    ## # A tibble: 822 x 9
    ##     year month gov_gop sen_gop rep_gop gov_dem sen_dem rep_dem president
    ##    <dbl> <chr>   <dbl>   <dbl>   <dbl>   <dbl>   <dbl>   <dbl> <chr>    
    ##  1  1947 Jan        23      51     253      23      45     198 dem      
    ##  2  1947 Feb        23      51     253      23      45     198 dem      
    ##  3  1947 Mar        23      51     253      23      45     198 dem      
    ##  4  1947 Apr        23      51     253      23      45     198 dem      
    ##  5  1947 May        23      51     253      23      45     198 dem      
    ##  6  1947 Jun        23      51     253      23      45     198 dem      
    ##  7  1947 Jul        23      51     253      23      45     198 dem      
    ##  8  1947 Aug        23      51     253      23      45     198 dem      
    ##  9  1947 Sep        23      51     253      23      45     198 dem      
    ## 10  1947 Oct        23      51     253      23      45     198 dem      
    ## # … with 812 more rows
…
    ## Parsed with column specification:
    ## cols(
    ##   date = col_character(),
    ##   close = col_double()
    ## )

``` r
standard_poor_stock_data
```

    ## # A tibble: 787 x 3
    ##     year month close
    ##    <dbl> <chr> <dbl>
    ##  1  2015 Jan   2080.
    ##  2  2015 Jan   2063.
    ##  3  2015 Jan   2107.
    ##  4  2015 Jan   2086.
    ##  5  2015 Feb   2068.
    ##  6  2015 Feb   2104.
    ##  7  2015 Feb   1995.
    ##  8  2014 Jan   2059.
    ##  9  2014 Mar   2068.
    ## 10  2014 Jan   2018.
    ## # … with 777 more rows
…
``` r
unemployment_data
```

    ## # A tibble: 816 x 3
    ##     year month percent
    ##    <dbl> <chr>   <dbl>
    ##  1  1948 Jan       3.4
    ##  2  1948 Feb       3.8
    ##  3  1948 Mar       4  
    ##  4  1948 Apr       3.9
    ##  5  1948 May       3.5
    ##  6  1948 Jun       3.6
    ##  7  1948 Jul       3.6
    ##  8  1948 Aug       3.9
    ##  9  1948 Sep       3.8
    ## 10  1948 Oct       3.7
    ## # … with 806 more rows

## Merge standard\_poor\_stock\_data and pols\_month\_data to form snp\_pols\_data

``` r
snp_pols_data = 
  left_join(pols_month_data, standard_poor_stock_data, by = c("year", "month"))
snp_pols_data
```

    ## # A tibble: 1,391 x 10
    ##     year month gov_gop sen_gop rep_gop gov_dem sen_dem rep_dem president
    ##    <dbl> <chr>   <dbl>   <dbl>   <dbl>   <dbl>   <dbl>   <dbl> <chr>    
    ##  1  1947 Jan        23      51     253      23      45     198 dem      
    ##  2  1947 Feb        23      51     253      23      45     198 dem      
    ##  3  1947 Mar        23      51     253      23      45     198 dem      
    ##  4  1947 Apr        23      51     253      23      45     198 dem      
    ##  5  1947 May        23      51     253      23      45     198 dem      
    ##  6  1947 Jun        23      51     253      23      45     198 dem      
    ##  7  1947 Jul        23      51     253      23      45     198 dem      
    ##  8  1947 Aug        23      51     253      23      45     198 dem      
    ##  9  1947 Sep        23      51     253      23      45     198 dem      
    ## 10  1947 Oct        23      51     253      23      45     198 dem      
    ## # … with 1,381 more rows, and 1 more variable: close <dbl>

## Merge unemployment\_data and snp\_pols\_data into snp\_pols\_unemp\_data

``` r
snp_pols_unemp_data = 
    left_join(snp_pols_data, unemployment_data, by = c("year", "month"))
snp_pols_unemp_data
```

    ## # A tibble: 1,391 x 11
    ##     year month gov_gop sen_gop rep_gop gov_dem sen_dem rep_dem president
    ##    <dbl> <chr>   <dbl>   <dbl>   <dbl>   <dbl>   <dbl>   <dbl> <chr>    
    ##  1  1947 Jan        23      51     253      23      45     198 dem      
    ##  2  1947 Feb        23      51     253      23      45     198 dem      
    ##  3  1947 Mar        23      51     253      23      45     198 dem      
    ##  4  1947 Apr        23      51     253      23      45     198 dem      
    ##  5  1947 May        23      51     253      23      45     198 dem      
    ##  6  1947 Jun        23      51     253      23      45     198 dem      
    ##  7  1947 Jul        23      51     253      23      45     198 dem      
    ##  8  1947 Aug        23      51     253      23      45     198 dem      
    ##  9  1947 Sep        23      51     253      23      45     198 dem      
    ## 10  1947 Oct        23      51     253      23      45     198 dem      
    ## # … with 1,381 more rows, and 2 more variables: close <dbl>, percent <dbl>
…
